{
  "name": "Awesome React and Typescript apps",
  "description": "An awesome list of real-world open source app repositories - using React and Typescript. No demos and xyz clones.",
  "repositories": [
    {
      "repo_url": "https://github.com/getsentry/sentry"
    },
    {
      "repo_url": "https://github.com/appsmithorg/appsmith"
    },
    {
      "repo_url": "https://github.com/Automattic/wp-calypso"
    },
    {
      "repo_url": "https://github.com/devhubapp/devhub"
    },
    {
      "repo_url": "https://github.com/HospitalRun/hospitalrun-frontend"
    },
    {
      "repo_url": "https://github.com/PostHog/posthog"
    },
    {
      "repo_url": "https://github.com/tinacms/tinacms"
    },
    {
      "repo_url": "https://github.com/learnapollo/learnapollo"
    },
    {
      "repo_url": "https://github.com/openreplay/openreplay"
    },
    {
      "repo_url": "https://github.com/sanity-io/sanity"
    },
    {
      "repo_url": "https://github.com/alibaba/GGEditor"
    },
    {
      "repo_url": "https://github.com/BoostIO/BoostNote-App"
    },
    {
      "repo_url": "https://github.com/porter-dev/porter"
    },
    {
      "repo_url": "https://github.com/JordanKnott/taskcafe"
    },
    {
      "repo_url": "https://github.com/elastic/kibana"
    },
    {
      "repo_url": "https://github.com/mattermost/mattermost-webapp"
    },
    {
      "repo_url": "https://github.com/captbaritone/webamp"
    },
    {
      "repo_url": "https://github.com/dnote/dnote"
    },
    {
      "repo_url": "https://github.com/grafana/grafana"
    },
    {
      "repo_url": "https://github.com/lensterxyz/lenster"
    },
    {
      "repo_url": "https://github.com/letterpad/letterpad"
    }
  ]
}
